INDEX VERSION 1.4+/etudiants/zharrat/Documents/J2EE/Helloworld Project/.metadata/.plugins/org.eclipse.wst.jsdt.core/indexes
1039586259.index
1304471886.index
1852991895.index
2167881759.index
722488182.index
1407275356.index
823603191.index
