INDEX VERSION 1.4+/etudiants/zharrat/Documents/J2EE/.metadata/.plugins/org.eclipse.wst.jsdt.core/indexes
3048631431.index
70378505.index
356877725.index
1030506396.index
3723687553.index
1218647440.index
3297573622.index
3741934993.index
